<?xml version="1.0" standalone="no"?>
<!DOCTYPE svg PUBLIC "-//W3C//DTD SVG 20010904//EN"
 "http://www.w3.org/TR/2001/REC-SVG-20010904/DTD/svg10.dtd">
<svg version="1.0" xmlns="http://www.w3.org/2000/svg"
 width="16.000000pt" height="16.000000pt" viewBox="0 0 16.000000 16.000000"
 preserveAspectRatio="xMidYMid meet">
<metadata>
Created by potrace 1.11, written by Peter Selinger 2001-2013
</metadata>
<g transform="translate(0.000000,16.000000) scale(0.004494,-0.004494)"
fill="#000000" stroke="none">
<path d="M2 2438 l3 -193 663 0 c495 0 665 -3 670 -12 4 -6 7 -67 7 -135 l0
-123 -670 0 -670 0 0 -375 c0 -361 1 -377 22 -420 52 -111 148 -198 255 -231
60 -19 95 -20 683 -20 341 0 654 0 695 0 l75 1 -1 667 c-1 368 -4 682 -7 698
-17 104 -101 226 -189 278 -99 58 -90 57 -845 57 l-693 0 2 -192z m1333 -860
c6 -4 10 -58 10 -135 l0 -128 -468 0 c-258 0 -474 3 -480 7 -13 8 -18 250 -6
258 11 8 932 6 944 -2z"/>
<path d="M2105 2609 c-116 -37 -216 -137 -255 -254 -22 -65 -22 -74 -22 -741
0 -372 3 -678 5 -681 7 -6 1365 -5 1396 1 149 32 263 132 311 272 18 53 19 93
20 740 l0 684 -697 -1 c-664 0 -701 -1 -758 -20z m1065 -499 l0 -135 -477 0
-478 0 0 128 c-1 91 3 130 11 135 7 4 222 7 478 7 l466 0 0 -135z m5 -648 c0
-68 -3 -129 -7 -135 -5 -9 -127 -12 -478 -12 -258 0 -471 2 -471 5 -6 22 -4
247 2 255 5 7 173 10 481 10 l473 0 0 -123z"/>
</g>
</svg>
